HW8
…
Rows: 8760 Columns: 14
── Column specification ────────────────────────────────────────────────────────
Delimiter: ","
chr  (4): date, seasons, holiday, functioning_day
dbl (10): rented_bike_count, hour, temperaturec, humidity, wind_speed_ms, vi...

ℹ Use `spec()` to retrieve the full column specification for this data.
ℹ Specify the column types or set `show_col_types = FALSE` to quiet this message.

bike_rentals

# A tibble: 8,760 × 14
   date       rented_bike_count  hour temperaturec humidity wind_speed_ms
   <chr>                  <dbl> <dbl>        <dbl>    <dbl>         <dbl>
 1 01/12/2017               254     0         -5.2       37           2.2
 2 01/12/2017               204     1         -5.5       38           0.8
 3 01/12/2017               173     2         -6         39           1  
 4 01/12/2017               107     3         -6.2       40           0.9
 5 01/12/2017                78     4         -6         36           2.3
 6 01/12/2017               100     5         -6.4       37           1.5
 7 01/12/2017               181     6         -6.6       35           1.3
 8 01/12/2017               460     7         -7.4       38           0.9
 9 01/12/2017               930     8         -7.6       37           1.1
10 01/12/2017               490     9         -6.5       27           0.5
# ℹ 8,750 more rows
# ℹ 8 more variables: visibility_10m <dbl>, dew_point_temperaturec <dbl>,
#   solar_radiation_mjm2 <dbl>, rainfallmm <dbl>, snowfall_cm <dbl>,
#   seasons <chr>, holiday <chr>, functioning_day <chr>
…
[1] "No Holiday" "Holiday"   

unique(bike_rentals$functioning_day)

[1] "Yes" "No" 

bike_rentals <- bike_rentals |>
  mutate(date = dmy(date),
         seasons = as.factor(seasons),
         holiday = as.factor(holiday),
         functioning_day = as.factor(functioning_day)
        )
bike_rentals

# A tibble: 8,760 × 14
   date       rented_bike_count  hour  temp humidity wind_speed visibility
   <date>                 <dbl> <dbl> <dbl>    <dbl>      <dbl>      <dbl>
 1 2017-12-01               254     0  -5.2       37        2.2       2000
 2 2017-12-01               204     1  -5.5       38        0.8       2000
 3 2017-12-01               173     2  -6         39        1         2000
 4 2017-12-01               107     3  -6.2       40        0.9       2000
 5 2017-12-01                78     4  -6         36        2.3       2000
 6 2017-12-01               100     5  -6.4       37        1.5       2000
 7 2017-12-01               181     6  -6.6       35        1.3       2000
 8 2017-12-01               460     7  -7.4       38        0.9       2000
 9 2017-12-01               930     8  -7.6       37        1.1       2000
10 2017-12-01               490     9  -6.5       27        0.5       1928
# ℹ 8,750 more rows
# ℹ 7 more variables: dew_point_temp <dbl>, solar_radiation <dbl>,
#   rainfall <dbl>, snowfall <dbl>, seasons <fct>, holiday <fct>,
#   functioning_day <fct>
…
`summarise()` has grouped output by 'date', 'seasons'. You can override using
the `.groups` argument.

bike_model_data

# A tibble: 353 × 12
# Groups:   date, seasons [353]
   date       seasons holiday    total_rented_bike_count total_rainfall
   <date>     <fct>   <fct>                        <dbl>          <dbl>
 1 2017-12-01 Winter  No Holiday                    9539            0  
 2 2017-12-02 Winter  No Holiday                    8523            0  
 3 2017-12-03 Winter  No Holiday                    7222            4  
 4 2017-12-04 Winter  No Holiday                    8729            0.1
 5 2017-12-05 Winter  No Holiday                    8307            0  
 6 2017-12-06 Winter  No Holiday                    6669            1.3
 7 2017-12-07 Winter  No Holiday                    8549            0  
 8 2017-12-08 Winter  No Holiday                    8032            0  
 9 2017-12-09 Winter  No Holiday                    7233            0  
10 2017-12-10 Winter  No Holiday                    3453            4.1
# ℹ 343 more rows
# ℹ 7 more variables: total_snowfall <dbl>, mean_temp <dbl>,
#   mean_humidity <dbl>, mean_wind_speed <dbl>, mean_visibility <dbl>,
#   mean_dew_point_temp <dbl>, mean_solar_radiation <dbl>
…
Creating different recipes

recipe1 <- recipe(log_bike_rentals ~ ., data = bike_rentals_train) |>
  step_date(date, features = c("dow")) |>
  step_mutate(day_type = factor(if_else(date_dow %in% c("Sat", "Sun"), "Weekend", "Weekday"))) |>
  step_rm(date) |>
  step_rm(starts_with("date_dow")) |>
  step_normalize(all_numeric(), -all_outcomes()) |>
  step_dummy(seasons, holiday, day_type) 

recipe1 |>
  prep(training = bike_rentals_train) |>
  bake(bike_rentals_train)

# A tibble: 263 × 14
   total_rainfall total_snowfall mean_temp mean_humidity mean_wind_speed
            <dbl>          <dbl>     <dbl>         <dbl>           <dbl>
 1         -0.299         -0.211     1.08         0.203          -0.866 
 2          2.86          -0.211     0.918        1.65           -1.12  
 3         -0.299         -0.211     0.938        0.243           1.35  
 4         -0.162         -0.211     0.795       -0.0939          1.31  
 5         -0.299         -0.211     0.755       -0.656          -0.0810
 6         -0.299         -0.211     0.778       -0.602          -0.823 
 7         -0.299         -0.211     0.862       -0.559          -0.259 
 8         -0.299         -0.211     0.744       -0.705          -0.409 
 9         -0.299         -0.211     0.826       -0.434          -0.673 
10         -0.253         -0.211     0.906        0.614          -0.702 
# ℹ 253 more rows
# ℹ 9 more variables: mean_visibility <dbl>, mean_dew_point_temp <dbl>,
#   mean_solar_radiation <dbl>, log_bike_rentals <dbl>, seasons_Spring <dbl>,
#   seasons_Summer <dbl>, seasons_Winter <dbl>, holiday_No.Holiday <dbl>,
#   day_type_Weekend <dbl>
…
recipe2 |>
  prep(training = bike_rentals_train) |>
  bake(bike_rentals_train)

# A tibble: 263 × 21
   total_rainfall total_snowfall mean_temp mean_humidity mean_wind_speed
            <dbl>          <dbl>     <dbl>         <dbl>           <dbl>
 1         -0.299         -0.211     1.08         0.203          -0.866 
 2          2.86          -0.211     0.918        1.65           -1.12  
 3         -0.299         -0.211     0.938        0.243           1.35  
 4         -0.162         -0.211     0.795       -0.0939          1.31  
 5         -0.299         -0.211     0.755       -0.656          -0.0810
 6         -0.299         -0.211     0.778       -0.602          -0.823 
 7         -0.299         -0.211     0.862       -0.559          -0.259 
 8         -0.299         -0.211     0.744       -0.705          -0.409 
 9         -0.299         -0.211     0.826       -0.434          -0.673 
10         -0.253         -0.211     0.906        0.614          -0.702 
# ℹ 253 more rows
# ℹ 16 more variables: mean_visibility <dbl>, mean_dew_point_temp <dbl>,
#   mean_solar_radiation <dbl>, log_bike_rentals <dbl>, seasons_Spring <dbl>,
#   seasons_Summer <dbl>, seasons_Winter <dbl>, holiday_No.Holiday <dbl>,
#   day_type_Weekend <dbl>, holiday_No.Holiday_x_seasons_Spring <dbl>,
#   holiday_No.Holiday_x_seasons_Summer <dbl>,
#   holiday_No.Holiday_x_seasons_Winter <dbl>, …
…
recipe3 |>
  prep(training = bike_rentals_train) |>
  bake(bike_rentals_train)

# A tibble: 263 × 29
   log_bike_rentals seasons_Spring seasons_Summer seasons_Winter
              <dbl>          <dbl>          <dbl>          <dbl>
 1            10.2               0              0              0
 2             9.29              0              0              0
 3            10.3               0              0              0
 4            10.3               0              0              0
 5            10.3               0              0              0
 6            10.3               0              0              0
 7            10.3               0              0              0
 8            10.4               0              0              0
 9            10.4               0              0              0
10            10.2               0              0              0
# ℹ 253 more rows
# ℹ 25 more variables: holiday_No.Holiday <dbl>, day_type_Weekend <dbl>,
#   holiday_No.Holiday_x_seasons_Spring <dbl>,
#   holiday_No.Holiday_x_seasons_Summer <dbl>,
#   holiday_No.Holiday_x_seasons_Winter <dbl>,
#   mean_temp_x_seasons_Spring <dbl>, mean_temp_x_seasons_Summer <dbl>,
#   mean_temp_x_seasons_Winter <dbl>, mean_temp_x_total_rainfall <dbl>, …
…
# A tibble: 2 × 4
  .metric .estimator .estimate .config        
  <chr>   <chr>          <dbl> <chr>          
1 rmse    standard       0.185 pre0_mod0_post0
2 rsq     standard       0.945 pre0_mod0_post0

fitting the final model

final_model <- MLR_wkf2 |>
  fit(bike_rentals_train)
tidy(final_model)

# A tibble: 21 × 5
   term                 estimate std.error statistic   p.value
   <chr>                   <dbl>     <dbl>     <dbl>     <dbl>
 1 (Intercept)            9.70      0.115      84.7  2.11e-182
 2 total_rainfall        -0.364     0.0308    -11.8  8.93e- 26
 3 total_snowfall        -0.0258    0.0152     -1.70 9.09e-  2
 4 mean_temp             -0.465     0.325      -1.43 1.55e-  1
 5 mean_humidity         -0.227     0.112      -2.02 4.44e-  2
 6 mean_wind_speed       -0.0319    0.0163     -1.96 5.13e-  2
 7 mean_visibility        0.0311    0.0213      1.46 1.46e-  1
 8 mean_dew_point_temp    0.834     0.365       2.29 2.32e-  2
 9 mean_solar_radiation   0.191     0.0259      7.38 2.51e- 12
10 seasons_Spring        -0.209     0.200      -1.05 2.96e-  1
# ℹ 11 more rows
…
